\relax 
\providecommand\hyper@newdestlabel[2]{}
\providecommand\HyperFirstAtBeginDocument{\AtBeginDocument}
\HyperFirstAtBeginDocument{\ifx\hyper@anchor\@undefined
\global\let\oldcontentsline\contentsline
\gdef\contentsline#1#2#3#4{\oldcontentsline{#1}{#2}{#3}}
\global\let\oldnewlabel\newlabel
\gdef\newlabel#1#2{\newlabelxx{#1}#2}
\gdef\newlabelxx#1#2#3#4#5#6{\oldnewlabel{#1}{{#2}{#3}}}
\AtEndDocument{\ifx\hyper@anchor\@undefined
\let\contentsline\oldcontentsline
\let\newlabel\oldnewlabel
\fi}
\fi}
\global\let\hyper@last\relax 
\gdef\HyperFirstAtBeginDocument#1{#1}
\providecommand\HyField@AuxAddToFields[1]{}
\providecommand\HyField@AuxAddToCoFields[2]{}
\citation{Abbott2017}
\citation{Abbott2017b}
\citation{Abbott2017d,Narayan92}
\citation{Abbott2017c,Eichler89}
\citation{Annala2017,De2018b,Abbott2018tidal}
\citation{Fattoyev2018,Zhu2018,Zhang2019}
\citation{Most2018,Montana2018,Zhou2018b}
\citation{Abbott2017}
\citation{Flanagan2008}
\citation{Lawrence2015,Murguia-Berthier2014}
\citation{Dai2006,Metzger2008}
\citation{Ruiz2017}
\citation{Hinderer08,Flanagan2008}
\citation{Abbott2017}
\citation{Abbott2019}
\citation{Abbott2017}
\citation{Abbott2018tidal}
\citation{Abbott2019}
\citation{De2018b}
\citation{De2018b}
\newlabel{FirstPage}{{}{1}{}{Doc-Start}{}}
\@writefile{toc}{\contentsline {title}{Binary neutron star merger and neutron star equation of states}{1}{section*.1}}
\@writefile{toc}{\contentsline {section}{\numberline {I}GW170817 and the tidal deformability}{1}{section*.2}}
\citation{Abbott2018tidal,Annala2017,Most2018}
\citation{Abbott2018tidal}
\citation{Douchin01}
\citation{Demorest2010,Antoniadis2013}
\citation{Annala2017}
\citation{Most2018}
\citation{Fattoyev2018}
\citation{Zhu2018,Zhang2019}
\citation{Zhou2018b}
\citation{Damour:2009}
\citation{Lai2019}
\citation{Narayan92}
\citation{Abbott2017b}
\citation{Cook92b}
\citation{Abbott2017,Abbott2017e}
\citation{Ruiz2017}
\@writefile{toc}{\contentsline {section}{\numberline {II}GRB170817A and merger remnant}{2}{section*.3}}
\citation{Bauswein2017b}
\citation{Lai2019}
\citation{Ruiz2017}
\citation{Breu2016}
\citation{Rezzolla2017,Ruiz2017,Margalit2017,Shibata2017c}
\citation{Li2018}
\citation{Piro2019}
\citation{Eichler89}
\citation{Li1998,Metzger:2010}
\citation{Abbott2017b}
\citation{Kasen2017}
\citation{Ruffert97,Rosswog1999}
\citation{Oechslin07a,Hotokezaka2013}
\citation{Wanajo2014,Sekiguchi2016}
\citation{Metzger2008a,Dessart2009,Fernandez2013}
\citation{Metzger2014,Perego2014,Martin2015}
\@writefile{toc}{\contentsline {section}{\numberline {III}AT2017gfo and ejecta properties}{3}{section*.4}}
\citation{Cowperthwaite2017b,Kasen2017,Tanaka2017}
\citation{Perego2017}
\citation{Radice2018}
\citation{Radice2017b}
\citation{Radice2017b}
\citation{Kiuchi2019}
\citation{Margalit2017}
\citation{Margalit2017}
\citation{Rezzolla2017,Ruiz2017}
\citation{Li2018}
\citation{Shibata2017c}
\citation{}
\citation{}
\citation{}
\citation{}
\citation{}
\citation{}
\citation{}
\citation{}
\@writefile{toc}{\contentsline {section}{\numberline {IV}NS vs QS in multi-messenger era}{4}{section*.5}}
\citation{Abbott2017,Annala2017}
\citation{Bauswein2017b}
\citation{Antoniadis2013}
\citation{Abbott2017,Annala2017}
\citation{Bauswein2017b}
\citation{Antoniadis2013}
\bibdata{documentNotes,aeireferences}
\bibcite{Abbott2017}{{1}{2017}{{{The LIGO Scientific Collaboration}\ and\ {The Virgo Collaboration}}}{{}}}
\bibcite{Abbott2017b}{{2}{2017{}}{{{The LIGO Scientific Collaboration}\ \emph  {et~al.}}}{{{The LIGO Scientific Collaboration}, {the Virgo Collaboration}, {Abbott}, {Abbott}, {Abbott}, {Acernese}, {Ackley}, a{Adams}, {Adams}, {Addesso},\ and\ et~al.}}}
\bibcite{Abbott2017d}{{3}{2017}{{{LIGO Scientific Collaboration}\ \emph  {et~al.}}}{{{LIGO Scientific Collaboration}, {Virgo Collaboration}, {Gamma-Ray Burst Monitor},\ and\ {INTEGRAL}}}}
\bibcite{Narayan92}{{4}{1992}{{{Narayan}\ \emph  {et~al.}}}{{{Narayan}, {Paczynski},\ and\ {Piran}}}}
\bibcite{Abbott2017c}{{5}{2017}{{{Abbott}\ \emph  {et~al.}}}{{{Abbott}, {Abbott}, {Abbott}, {Acernese}, {Ackley}, {Adams}, {Adams}, {Addesso}, {Adhikari}, {Adya},\ and\ et~al.}}}
\bibcite{Eichler89}{{6}{1989}{{{Eichler}\ \emph  {et~al.}}}{{{Eichler}, {Livio}, {Piran},\ and\ {Schramm}}}}
\bibcite{Annala2017}{{7}{2018}{{{Annala}\ \emph  {et~al.}}}{{{Annala}, {Gorda}, {Kurkela},\ and\ {Vuorinen}}}}
\bibcite{De2018b}{{8}{2018}{{{De}\ \emph  {et~al.}}}{{{De}, {Finstad}, {Lattimer}, {Brown}, {Berger},\ and\ {Biwer}}}}
\bibcite{Abbott2018tidal}{{9}{2018}{{{Abbott}\ \emph  {et~al.}}}{{{Abbott}, {Abbott}, {Abbott}, {Acernese}, {Ackley}, {Adams}, {Adams}, {Addesso}, {Adhikari}, {Adya},\ and\ et~al.}}}
\bibcite{Fattoyev2018}{{10}{2018}{{{Fattoyev}\ \emph  {et~al.}}}{{{Fattoyev}, {Piekarewicz},\ and\ {Horowitz}}}}
\bibcite{Zhu2018}{{11}{2018}{{{Zhu}\ \emph  {et~al.}}}{{{Zhu}, {Zhou},\ and\ {Li}}}}
\bibcite{Zhang2019}{{12}{2019}{{{Zhang}\ and\ {Li}}}{{}}}
\bibcite{Most2018}{{13}{2018}{{{Most}\ \emph  {et~al.}}}{{{Most}, {Weih}, {Rezzolla},\ and\ {Schaffner-Bielich}}}}
\bibcite{Montana2018}{{14}{2018}{{{Montana}\ \emph  {et~al.}}}{{{Montana}, {Tolos}, {Hanauske},\ and\ {Rezzolla}}}}
\bibcite{Zhou2018b}{{15}{2018}{{{Zhou}\ \emph  {et~al.}}}{{{Zhou}, {Zhou},\ and\ {Li}}}}
\bibcite{Flanagan2008}{{16}{2008}{{Flanagan\ and\ Hinderer}}{{}}}
\bibcite{Lawrence2015}{{17}{2015}{{{Lawrence}\ \emph  {et~al.}}}{{{Lawrence}, {Tervala}, {Bedaque},\ and\ {Miller}}}}
\bibcite{Murguia-Berthier2014}{{18}{2014}{{{Murguia-Berthier}\ \emph  {et~al.}}}{{{Murguia-Berthier}, {Montes}, {Ramirez-Ruiz}, {De Colle},\ and\ {Lee}}}}
\bibcite{Dai2006}{{19}{2006}{{{Dai}\ \emph  {et~al.}}}{{{Dai}, {Wang}, {Wu},\ and\ {Zhang}}}}
\bibcite{Metzger2008}{{20}{2008{}}{{{Metzger}\ \emph  {et~al.}}}{{{Metzger}, {Quataert},\ and\ {Thompson}}}}
\bibcite{Ruiz2017}{{21}{2018}{{{Ruiz}\ \emph  {et~al.}}}{{{Ruiz}, {Shapiro},\ and\ {Tsokaros}}}}
\bibcite{Hinderer08}{{22}{2008}{{{Hinderer}}}{{}}}
\bibcite{Abbott2019}{{23}{2019}{{{Abbott}\ \emph  {et~al.}}}{{{Abbott}, {Abbott}, {Abbott}, {Acernese}, {Ackley}, {Adams}, {Adams}, {Addesso}, {Adhikari}, {Adya},\ and\ et~al.}}}
\bibcite{Douchin01}{{24}{2001}{{{Douchin}\ and\ {Haensel}}}{{}}}
\bibcite{Demorest2010}{{25}{2010}{{{Demorest}\ \emph  {et~al.}}}{{{Demorest}, {Pennucci}, {Ransom}, {Roberts},\ and\ {Hessels}}}}
\bibcite{Antoniadis2013}{{26}{2013}{{{Antoniadis}\ \emph  {et~al.}}}{{{Antoniadis}, {Freire}, {Wex}, {Tauris}, {Lynch},\ and\ {et al.}}}}
\@writefile{toc}{\contentsline {section}{\numberline {V}conclusion}{5}{section*.6}}
\@writefile{toc}{\contentsline {section}{\numberline {}References}{5}{section*.7}}
\bibcite{Damour:2009}{{27}{2009}{{{Damour}\ and\ {Nagar}}}{{}}}
\bibcite{Lai2019}{{28}{2018}{{{Lai}\ \emph  {et~al.}}}{{{Lai}, {Zhou},\ and\ {Xu}}}}
\bibcite{Cook92b}{{29}{1992}{{{Cook}\ \emph  {et~al.}}}{{{Cook}, {Shapiro},\ and\ {Teukolsky}}}}
\bibcite{Abbott2017e}{{30}{2017{}}{{{The LIGO Scientific Collaboration}\ \emph  {et~al.}}}{{{The LIGO Scientific Collaboration}, {the Virgo Collaboration}, {Abbott}, {Abbott}, {Abbott}, {Acernese}, {Ackley}, {Adams}, {Adams}, {Addesso},\ and\ et~al.}}}
\bibcite{Bauswein2017b}{{31}{2017}{{{Bauswein}\ \emph  {et~al.}}}{{{Bauswein}, {Just}, {Janka},\ and\ {Stergioulas}}}}
\bibcite{Breu2016}{{32}{2016}{{{Breu}\ and\ {Rezzolla}}}{{}}}
\bibcite{Rezzolla2017}{{33}{2018}{{{Rezzolla}\ \emph  {et~al.}}}{{{Rezzolla}, {Most},\ and\ {Weih}}}}
\bibcite{Margalit2017}{{34}{2017}{{{Margalit}\ and\ {Metzger}}}{{}}}
\bibcite{Shibata2017c}{{35}{2017}{{{Shibata}\ \emph  {et~al.}}}{{{Shibata}, {Fujibayashi}, {Hotokezaka}, {Kiuchi}, {Kyutoku}, {Sekiguchi},\ and\ {Tanaka}}}}
\bibcite{Li2018}{{36}{2018}{{{Li}\ \emph  {et~al.}}}{{{Li}, {Liu}, {Yu},\ and\ {Zhang}}}}
\bibcite{Piro2019}{{37}{2019}{{{Piro}\ \emph  {et~al.}}}{{{Piro}, {Troja}, {Zhang}, {Ryan}, {van Eerten}, {Ricci}, {Wieringa}, {Tiengo}, {Butler}, {Cenko}, {Fox}, {Khandrika}, {Novara}, {Rossi},\ and\ {Sakamoto}}}}
\bibcite{Li1998}{{38}{1998}{{{Li}\ and\ {Paczy{\'n}ski}}}{{}}}
\bibcite{Metzger:2010}{{39}{2010}{{{Metzger}\ \emph  {et~al.}}}{{{Metzger}, {Mart{\'{\i }}nez-Pinedo}, {Darbha}, {Quataert}, {Arcones}, {Kasen}, {Thomas}, {Nugent}, {Panov},\ and\ {Zinner}}}}
\bibcite{Kasen2017}{{40}{2017}{{{Kasen}\ \emph  {et~al.}}}{{{Kasen}, {Metzger}, {Barnes}, {Quataert},\ and\ {Ramirez-Ruiz}}}}
\bibcite{Ruffert97}{{41}{1997}{{{Ruffert}\ \emph  {et~al.}}}{{{Ruffert}, {Janka}, {Takahashi},\ and\ {Schaefer}}}}
\bibcite{Rosswog1999}{{42}{1999}{{{Rosswog}\ \emph  {et~al.}}}{{{Rosswog}, {Liebend{\"o}rfer}, {Thielemann}, {Davies}, {Benz},\ and\ {Piran}}}}
\bibcite{Oechslin07a}{{43}{2007}{{{Oechslin}\ \emph  {et~al.}}}{{{Oechslin}, {Janka},\ and\ {Marek}}}}
\bibcite{Hotokezaka2013}{{44}{2013}{{{Hotokezaka}\ \emph  {et~al.}}}{{{Hotokezaka}, {Kiuchi}, {Kyutoku}, {Okawa}, {Sekiguchi}, {Shibata},\ and\ {Taniguchi}}}}
\bibcite{Wanajo2014}{{45}{2014}{{{Wanajo}\ \emph  {et~al.}}}{{{Wanajo}, {Sekiguchi}, {Nishimura}, {Kiuchi}, {Kyutoku},\ and\ {Shibata}}}}
\bibcite{Sekiguchi2016}{{46}{2016}{{{Sekiguchi}\ \emph  {et~al.}}}{{{Sekiguchi}, {Kiuchi}, {Kyutoku}, {Shibata},\ and\ {Taniguchi}}}}
\bibcite{Metzger2008a}{{47}{2008{}}{{{Metzger}\ \emph  {et~al.}}}{{{Metzger}, {Piro},\ and\ {Quataert}}}}
\bibcite{Dessart2009}{{48}{2009}{{{Dessart}\ \emph  {et~al.}}}{{{Dessart}, {Ott}, {Burrows}, {Rosswog},\ and\ {Livne}}}}
\bibcite{Fernandez2013}{{49}{2013}{{{Fern{\'a}ndez}\ and\ {Metzger}}}{{}}}
\bibcite{Metzger2014}{{50}{2014}{{{Metzger}\ and\ {Fern{\'a}ndez}}}{{}}}
\bibcite{Perego2014}{{51}{2014}{{{Perego}\ \emph  {et~al.}}}{{{Perego}, {Rosswog}, {Cabez{\'o}n}, {Korobkin}, {K{\"a}ppeli}, {Arcones},\ and\ {Liebend{\"o}rfer}}}}
\bibcite{Martin2015}{{52}{2015}{{{Martin}\ \emph  {et~al.}}}{{{Martin}, {Perego}, {Arcones}, {Thielemann}, {Korobkin},\ and\ {Rosswog}}}}
\bibcite{Cowperthwaite2017b}{{53}{2017}{{Cowperthwaite\ \emph  {et~al.}}}{{Cowperthwaite, Berger, Villar, Metzger, Nicholl, Chornock, Blanchard, Fong, Margutti, Soares-Santos \emph  {et~al.}}}}
\bibcite{Tanaka2017}{{54}{2017}{{{Tanaka}\ \emph  {et~al.}}}{{{Tanaka}, {Utsumi}, {Mazzali} \emph  {et~al.}}}}
\bibcite{Perego2017}{{55}{2017}{{{Perego}\ \emph  {et~al.}}}{{{Perego}, {Radice},\ and\ {Bernuzzi}}}}
\bibcite{Radice2018}{{56}{2018{}}{{{Radice}\ \emph  {et~al.}}}{{{Radice}, {Perego}, {Hotokezaka}, {Fromm}, {Bernuzzi},\ and\ {Roberts}}}}
\bibcite{Radice2017b}{{57}{2018{}}{{{Radice}\ \emph  {et~al.}}}{{{Radice}, {Perego}, {Zappa},\ and\ {Bernuzzi}}}}
\bibcite{Kiuchi2019}{{58}{2019}{{{Kiuchi}\ \emph  {et~al.}}}{{{Kiuchi}, {Kyutoku}, {Shibata},\ and\ {Taniguchi}}}}
\bibstyle{apsrev4-1}
\@writefile{lof}{\contentsline {figure}{\numberline {1}{\ignorespaces The combined constraint on NS EoSs from the multi-messenger observation of GW170817, GRB170817A and AT2017gfo. The grey shaded region are excluded by the tidal deformability measurement of GW170817 \citep  {Abbott2017,Annala2017}. The red shaded region are forbidden because GRB170817A and AT2017gfo observation excludes a prompt collapse after merger \citep  {Bauswein2017b}. The solid horizontal line is the 2.01 solar mass lower limit for $M_\mathrm  {TOV}$ according to the observation of the most massive pulsar \citep  {Antoniadis2013} and the dotted horizontal line is the 2.17 solar mass constraint. Note that if the sGRB is powered by a BH central engine (or magnetar central engine), the dotted horizontal line would be a upper limit (or lower limit). M-R relation of several commonly used NS EoS is also shown in the figure. }}{6}{figure.1}}
\newlabel{fig:constraint}{{1}{6}{The combined constraint on NS EoSs from the multi-messenger observation of GW170817, GRB170817A and AT2017gfo. The grey shaded region are excluded by the tidal deformability measurement of GW170817 \citep {Abbott2017,Annala2017}. The red shaded region are forbidden because GRB170817A and AT2017gfo observation excludes a prompt collapse after merger \citep {Bauswein2017b}. The solid horizontal line is the 2.01 solar mass lower limit for $M_\mathrm {TOV}$ according to the observation of the most massive pulsar \citep {Antoniadis2013} and the dotted horizontal line is the 2.17 solar mass constraint. Note that if the sGRB is powered by a BH central engine (or magnetar central engine), the dotted horizontal line would be a upper limit (or lower limit). M-R relation of several commonly used NS EoS is also shown in the figure}{figure.1}{}}
\newlabel{LastBibItem}{{58}{6}{}{section*.7}{}}
\newlabel{LastPage}{{}{6}{}{}{}}
