This is BibTeX, Version 0.99d (TeX Live 2017/Debian)
Capacity: max_strings=100000, hash_size=100000, hash_prime=85009
The top-level auxiliary file: document.aux
The style file: apsrev4-1.bst
Reallocated singl_function (elt_size=4) to 100 items from 50.
Reallocated singl_function (elt_size=4) to 100 items from 50.
Reallocated singl_function (elt_size=4) to 100 items from 50.
Reallocated singl_function (elt_size=4) to 100 items from 50.
Reallocated singl_function (elt_size=4) to 100 items from 50.
Reallocated singl_function (elt_size=4) to 100 items from 50.
Reallocated wiz_functions (elt_size=4) to 6000 items from 3000.
Database file #1: documentNotes.bib
Database file #2: aeireferences.bib
Reallocated singl_function (elt_size=4) to 100 items from 50.
merlin.mbs apsrev4-1.bst 2010-07-25 4.21a (PWD, AO, DPC) hacked
Control: key (0) 
Control: author (72) initials jnrlst
Control: editor formatted (1) identically to author
Control: production of article title (-1) disabled
Control: page (0) single
Control: year (1) truncated
Control: production of eprint (0) enabled
You've used 58 entries,
            5847 wiz_defined-function locations,
            2065 strings with 28035 characters,
and the built_in function-call counts, 68404 in all, are:
= -- 3903
> -- 2233
< -- 425
+ -- 687
- -- 564
* -- 12021
:= -- 6294
add.period$ -- 58
call.type$ -- 58
change.case$ -- 232
chr.to.int$ -- 55
cite$ -- 58
duplicate$ -- 6398
empty$ -- 4916
format.name$ -- 1320
if$ -- 13431
int.to.chr$ -- 4
int.to.str$ -- 66
missing$ -- 796
newline$ -- 226
num.names$ -- 174
pop$ -- 2431
preamble$ -- 1
purify$ -- 290
quote$ -- 0
skip$ -- 2197
stack$ -- 0
substring$ -- 1087
swap$ -- 6578
text.length$ -- 265
text.prefix$ -- 0
top$ -- 8
type$ -- 920
warning$ -- 0
while$ -- 144
width$ -- 0
write$ -- 564
